{
  "stats": {
    "suites": 1,
    "tests": 21,
    "passes": 20,
    "pending": 0,
    "failures": 1,
    "start": "2021-05-26T12:03:39.355Z",
    "end": "2021-05-26T12:03:52.344Z",
    "duration": 12989,
    "testsRegistered": 21,
    "passPercent": 95.23809523809523,
    "pendingPercent": 0,
    "other": 0,
    "hasOther": false,
    "skipped": 0,
    "hasSkipped": false
  },
  "results": [
    {
      "uuid": "95fa0e54-aec5-4238-b886-5d4827ca8083",
      "title": "",
      "fullFile": "",
      "file": "",
      "beforeHooks": [
        {
          "title": "\"before all\" hook in \"{root}\"",
          "fullTitle": "\"before all\" hook in \"{root}\"",
          "timedOut": false,
          "duration": 266,
          "state": null,
          "speed": null,
          "pass": false,
          "fail": false,
          "pending": false,
          "context": null,
          "code": "browser = await playwright.chromium.launch({\n    headless: true\n})\npage = await browser.newPage()\nawait page.setViewportSize({\n    width: 1920,\n    height: 1080\n})",
          "err": {},
          "uuid": "1f0bb39f-b797-4c84-9d08-abf694c6c255",
          "parentUUID": "95fa0e54-aec5-4238-b886-5d4827ca8083",
          "isHook": true,
          "skipped": false
        },
        {
          "title": "\"before each\" hook in \"{root}\"",
          "fullTitle": "\"before each\" hook in \"{root}\"",
          "timedOut": false,
          "duration": 0,
          "state": null,
          "speed": null,
          "pass": false,
          "fail": false,
          "pending": false,
          "context": null,
          "code": "addContext(this, 'some context')",
          "err": {},
          "uuid": "cf65397b-5321-454f-8076-aba68ae308fb",
          "parentUUID": "95fa0e54-aec5-4238-b886-5d4827ca8083",
          "isHook": true,
          "skipped": false
        }
      ],
      "afterHooks": [
        {
          "title": "\"after all\" hook in \"{root}\"",
          "fullTitle": "\"after all\" hook in \"{root}\"",
          "timedOut": false,
          "duration": 46,
          "state": null,
          "speed": null,
          "pass": false,
          "fail": false,
          "pending": false,
          "context": null,
          "code": "await browser.close()",
          "err": {},
          "uuid": "3fc2febb-0a94-42f4-b3e7-305f2490fbfd",
          "parentUUID": "95fa0e54-aec5-4238-b886-5d4827ca8083",
          "isHook": true,
          "skipped": false
        },
        {
          "title": "\"after each\" hook in \"{root}\"",
          "fullTitle": "\"after each\" hook in \"{root}\"",
          "timedOut": false,
          "duration": 0,
          "state": null,
          "speed": null,
          "pass": false,
          "fail": false,
          "pending": false,
          "context": null,
          "code": "addContext(this, {\n    title: 'afterEach context',\n    value: { a: 1 },\n});",
          "err": {},
          "uuid": "9f90b155-5184-446f-836f-243baee15b79",
          "parentUUID": "95fa0e54-aec5-4238-b886-5d4827ca8083",
          "isHook": true,
          "skipped": false
        }
      ],
      "tests": [],
      "suites": [
        {
          "uuid": "c44c8c6c-5cab-4e5c-9636-f094e167b4cb",
          "title": "Add Address to the User's address book",
          "fullFile": "/home/dainis/Documents/Puppeteer-folder/sportland/sportland-puppeteer/tests/orderFlow/addAddress.test.js",
          "file": "/tests/orderFlow/addAddress.test.js",
          "beforeHooks": [],
          "afterHooks": [],
          "tests": [
            {
              "title": "Having an access to storefront",
              "fullTitle": "Add Address to the User's address book Having an access to storefront",
              "timedOut": true,
              "duration": 10001,
              "state": "failed",
              "speed": null,
              "pass": false,
              "fail": true,
              "pending": false,
              "context": "[\n  \"some context\",\n  {\n    \"title\": \"afterEach context\",\n    \"value\": {\n      \"a\": 1\n    }\n  }\n]",
              "code": "await page.goto(website[0])\nawait page.waitForSelector('.Header-Button.Header-Button_type_account')",
              "err": {
                "message": "Error: Timeout of 10000ms exceeded. For async tests and hooks, ensure \"done()\" is called; if returning a Promise, ensure it resolves. (/home/dainis/Documents/Puppeteer-folder/sportland/sportland-puppeteer/tests/orderFlow/addAddress.test.js)",
                "estack": "Error: Timeout of 10000ms exceeded. For async tests and hooks, ensure \"done()\" is called; if returning a Promise, ensure it resolves. (/home/dainis/Documents/Puppeteer-folder/sportland/sportland-puppeteer/tests/orderFlow/addAddress.test.js)\n    at listOnTimeout (internal/timers.js:554:17)\n    at processTimers (internal/timers.js:497:7)",
                "diff": null
              },
              "uuid": "7c07e4cb-ddfb-4a6b-b9dc-0aba2838bef7",
              "parentUUID": "c44c8c6c-5cab-4e5c-9636-f094e167b4cb",
              "isHook": false,
              "skipped": false
            },
            {
              "title": "Clicking on Register/Sign In button",
              "fullTitle": "Add Address to the User's address book Clicking on Register/Sign In button",
              "timedOut": false,
              "duration": 162,
              "state": "passed",
              "speed": "slow",
              "pass": true,
              "fail": false,
              "pending": false,
              "context": "[\n  \"some context\",\n  {\n    \"title\": \"afterEach context\",\n    \"value\": {\n      \"a\": 1\n    }\n  }\n]",
              "code": "await page.click('.Header-Button.Header-Button_type_account')",
              "err": {},
              "uuid": "2a6a8162-8036-452d-88b6-3842d7c9eabc",
              "parentUUID": "c44c8c6c-5cab-4e5c-9636-f094e167b4cb",
              "isHook": false,
              "skipped": false
            },
            {
              "title": "Sign in to your account drop-down appearing",
              "fullTitle": "Add Address to the User's address book Sign in to your account drop-down appearing",
              "timedOut": false,
              "duration": 13,
              "state": "passed",
              "speed": "fast",
              "pass": true,
              "fail": false,
              "pending": false,
              "context": "[\n  \"some context\",\n  {\n    \"title\": \"afterEach context\",\n    \"value\": {\n      \"a\": 1\n    }\n  }\n]",
              "code": "await page.waitForSelector('.Button.Button_isHollow')",
              "err": {},
              "uuid": "bcbdd9b3-665e-435c-b19a-bede56dbd02e",
              "parentUUID": "c44c8c6c-5cab-4e5c-9636-f094e167b4cb",
              "isHook": false,
              "skipped": false
            },
            {
              "title": "Filling Login or Email field with valid info",
              "fullTitle": "Add Address to the User's address book Filling Login or Email field with valid info",
              "timedOut": false,
              "duration": 55,
              "state": "passed",
              "speed": "medium",
              "pass": true,
              "fail": false,
              "pending": false,
              "context": "[\n  \"some context\",\n  {\n    \"title\": \"afterEach context\",\n    \"value\": {\n      \"a\": 1\n    }\n  }\n]",
              "code": "await page.fill('#email', website[3])",
              "err": {},
              "uuid": "7b0992d8-a0a8-4ff1-bce6-1a61306a42dc",
              "parentUUID": "c44c8c6c-5cab-4e5c-9636-f094e167b4cb",
              "isHook": false,
              "skipped": false
            },
            {
              "title": "Filling Password field with valid info",
              "fullTitle": "Add Address to the User's address book Filling Password field with valid info",
              "timedOut": false,
              "duration": 151,
              "state": "passed",
              "speed": "slow",
              "pass": true,
              "fail": false,
              "pending": false,
              "context": "[\n  \"some context\",\n  {\n    \"title\": \"afterEach context\",\n    \"value\": {\n      \"a\": 1\n    }\n  }\n]",
              "code": "await page.fill('#password', password)",
              "err": {},
              "uuid": "a9bfcf54-e6bf-4b72-aa11-a4ddfb24fa2f",
              "parentUUID": "c44c8c6c-5cab-4e5c-9636-f094e167b4cb",
              "isHook": false,
              "skipped": false
            },
            {
              "title": "Clicking on SIGN IN button",
              "fullTitle": "Add Address to the User's address book Clicking on SIGN IN button",
              "timedOut": false,
              "duration": 133,
              "state": "passed",
              "speed": "slow",
              "pass": true,
              "fail": false,
              "pending": false,
              "context": "[\n  \"some context\",\n  {\n    \"title\": \"afterEach context\",\n    \"value\": {\n      \"a\": 1\n    }\n  }\n]",
              "code": "await page.click('.Button')",
              "err": {},
              "uuid": "afd97faa-4b0a-44dd-afc2-4a634cdc7b30",
              "parentUUID": "c44c8c6c-5cab-4e5c-9636-f094e167b4cb",
              "isHook": false,
              "skipped": false
            },
            {
              "title": "Redirecting to My Account Dashboard page",
              "fullTitle": "Add Address to the User's address book Redirecting to My Account Dashboard page",
              "timedOut": false,
              "duration": 795,
              "state": "passed",
              "speed": "slow",
              "pass": true,
              "fail": false,
              "pending": false,
              "context": "[\n  \"some context\",\n  {\n    \"title\": \"afterEach context\",\n    \"value\": {\n      \"a\": 1\n    }\n  }\n]",
              "code": "await page.waitForSelector('.MyAccountTabListItem_tab_Address_book > .MyAccountTabListItem-Button')",
              "err": {},
              "uuid": "af78d7a9-81f3-4974-bbfe-01935f598c62",
              "parentUUID": "c44c8c6c-5cab-4e5c-9636-f094e167b4cb",
              "isHook": false,
              "skipped": false
            },
            {
              "title": "Clicking on Address book option in sidebar",
              "fullTitle": "Add Address to the User's address book Clicking on Address book option in sidebar",
              "timedOut": false,
              "duration": 111,
              "state": "passed",
              "speed": "slow",
              "pass": true,
              "fail": false,
              "pending": false,
              "context": "[\n  \"some context\",\n  {\n    \"title\": \"afterEach context\",\n    \"value\": {\n      \"a\": 1\n    }\n  }\n]",
              "code": "await page.click('.MyAccountTabListItem_tab_Address_book > .MyAccountTabListItem-Button')",
              "err": {},
              "uuid": "6d59e5a9-0d2a-4ee9-9fcf-ddb59a1e1a4e",
              "parentUUID": "c44c8c6c-5cab-4e5c-9636-f094e167b4cb",
              "isHook": false,
              "skipped": false
            },
            {
              "title": "List off addresses in Address book appears",
              "fullTitle": "Add Address to the User's address book List off addresses in Address book appears",
              "timedOut": false,
              "duration": 16,
              "state": "passed",
              "speed": "fast",
              "pass": true,
              "fail": false,
              "pending": false,
              "context": "[\n  \"some context\",\n  {\n    \"title\": \"afterEach context\",\n    \"value\": {\n      \"a\": 1\n    }\n  }\n]",
              "code": "await page.waitForSelector('.MyAccountAddressBook-Button')",
              "err": {},
              "uuid": "8a631f16-4e50-489f-aa5c-6f68b330d789",
              "parentUUID": "c44c8c6c-5cab-4e5c-9636-f094e167b4cb",
              "isHook": false,
              "skipped": false
            },
            {
              "title": "Clicking on ADD NEW ADDRESS button",
              "fullTitle": "Add Address to the User's address book Clicking on ADD NEW ADDRESS button",
              "timedOut": false,
              "duration": 180,
              "state": "passed",
              "speed": "slow",
              "pass": true,
              "fail": false,
              "pending": false,
              "context": "[\n  \"some context\",\n  {\n    \"title\": \"afterEach context\",\n    \"value\": {\n      \"a\": 1\n    }\n  }\n]",
              "code": "await page.click(\n    'section > .ContentWrapper > .MyAccount-TabContent > .MyAccountAddressBook > .MyAccountAddressBook-Button')",
              "err": {},
              "uuid": "f9a04b81-4421-4f67-897d-9ef5122f5aa1",
              "parentUUID": "c44c8c6c-5cab-4e5c-9636-f094e167b4cb",
              "isHook": false,
              "skipped": false
            },
            {
              "title": "Add new address pop-up appears",
              "fullTitle": "Add Address to the User's address book Add new address pop-up appears",
              "timedOut": false,
              "duration": 184,
              "state": "passed",
              "speed": "slow",
              "pass": true,
              "fail": false,
              "pending": false,
              "context": "[\n  \"some context\",\n  {\n    \"title\": \"afterEach context\",\n    \"value\": {\n      \"a\": 1\n    }\n  }\n]",
              "code": "await page.waitForSelector(\n    '.Popup-Content > .Form > .FieldForm-Fields > .Field:nth-child(1) > label:nth-child(3)')",
              "err": {},
              "uuid": "e979f4bc-2b97-466f-b3bf-02f565cc306d",
              "parentUUID": "c44c8c6c-5cab-4e5c-9636-f094e167b4cb",
              "isHook": false,
              "skipped": false
            },
            {
              "title": "Checking This is default Billing Address checkbox",
              "fullTitle": "Add Address to the User's address book Checking This is default Billing Address checkbox",
              "timedOut": false,
              "duration": 86,
              "state": "passed",
              "speed": "slow",
              "pass": true,
              "fail": false,
              "pending": false,
              "context": "[\n  \"some context\",\n  {\n    \"title\": \"afterEach context\",\n    \"value\": {\n      \"a\": 1\n    }\n  }\n]",
              "code": "await page.click('.Popup-Content > .Form > .FieldForm-Fields > .Field:nth-child(1) > label:nth-child(3)')",
              "err": {},
              "uuid": "08dcf367-1de2-4248-bc83-b471b21aba2d",
              "parentUUID": "c44c8c6c-5cab-4e5c-9636-f094e167b4cb",
              "isHook": false,
              "skipped": false
            },
            {
              "title": "Checking This is default Shipping Address checkbox",
              "fullTitle": "Add Address to the User's address book Checking This is default Shipping Address checkbox",
              "timedOut": false,
              "duration": 97,
              "state": "passed",
              "speed": "slow",
              "pass": true,
              "fail": false,
              "pending": false,
              "context": "[\n  \"some context\",\n  {\n    \"title\": \"afterEach context\",\n    \"value\": {\n      \"a\": 1\n    }\n  }\n]",
              "code": "await page.click('.Popup-Content > .Form > .FieldForm-Fields > .Field:nth-child(2) > label:nth-child(3)')",
              "err": {},
              "uuid": "e4304937-0876-40b5-be3a-8397a6bdf1db",
              "parentUUID": "c44c8c6c-5cab-4e5c-9636-f094e167b4cb",
              "isHook": false,
              "skipped": false
            },
            {
              "title": "Filling First name field with valid info",
              "fullTitle": "Add Address to the User's address book Filling First name field with valid info",
              "timedOut": false,
              "duration": 58,
              "state": "passed",
              "speed": "medium",
              "pass": true,
              "fail": false,
              "pending": false,
              "context": "[\n  \"some context\",\n  {\n    \"title\": \"afterEach context\",\n    \"value\": {\n      \"a\": 1\n    }\n  }\n]",
              "code": "await page.fill('#firstname', firstName)",
              "err": {},
              "uuid": "83b18cc6-6d21-47f5-9072-ad5b81333fda",
              "parentUUID": "c44c8c6c-5cab-4e5c-9636-f094e167b4cb",
              "isHook": false,
              "skipped": false
            },
            {
              "title": "Filling Last name field with valid info",
              "fullTitle": "Add Address to the User's address book Filling Last name field with valid info",
              "timedOut": false,
              "duration": 114,
              "state": "passed",
              "speed": "slow",
              "pass": true,
              "fail": false,
              "pending": false,
              "context": "[\n  \"some context\",\n  {\n    \"title\": \"afterEach context\",\n    \"value\": {\n      \"a\": 1\n    }\n  }\n]",
              "code": "await page.fill('#lastname', lastName)",
              "err": {},
              "uuid": "0efd4a67-40d2-4a5b-ae19-1aa1a436efec",
              "parentUUID": "c44c8c6c-5cab-4e5c-9636-f094e167b4cb",
              "isHook": false,
              "skipped": false
            },
            {
              "title": "Filling Phone number field with valid info",
              "fullTitle": "Add Address to the User's address book Filling Phone number field with valid info",
              "timedOut": false,
              "duration": 184,
              "state": "passed",
              "speed": "slow",
              "pass": true,
              "fail": false,
              "pending": false,
              "context": "[\n  \"some context\",\n  {\n    \"title\": \"afterEach context\",\n    \"value\": {\n      \"a\": 1\n    }\n  }\n]",
              "code": "await page.fill('#telephone', website[1])",
              "err": {},
              "uuid": "ee46f6fd-eab6-4c35-853b-4ec6bc3e25bb",
              "parentUUID": "c44c8c6c-5cab-4e5c-9636-f094e167b4cb",
              "isHook": false,
              "skipped": false
            },
            {
              "title": "Filling City field with valid info",
              "fullTitle": "Add Address to the User's address book Filling City field with valid info",
              "timedOut": false,
              "duration": 41,
              "state": "passed",
              "speed": "medium",
              "pass": true,
              "fail": false,
              "pending": false,
              "context": "[\n  \"some context\",\n  {\n    \"title\": \"afterEach context\",\n    \"value\": {\n      \"a\": 1\n    }\n  }\n]",
              "code": "await page.fill('#city', city)",
              "err": {},
              "uuid": "eae16a7e-77be-41dd-b86a-3a90ff0659e5",
              "parentUUID": "c44c8c6c-5cab-4e5c-9636-f094e167b4cb",
              "isHook": false,
              "skipped": false
            },
            {
              "title": "Filling Zip/Postal code field with valid info",
              "fullTitle": "Add Address to the User's address book Filling Zip/Postal code field with valid info",
              "timedOut": false,
              "duration": 70,
              "state": "passed",
              "speed": "medium",
              "pass": true,
              "fail": false,
              "pending": false,
              "context": "[\n  \"some context\",\n  {\n    \"title\": \"afterEach context\",\n    \"value\": {\n      \"a\": 1\n    }\n  }\n]",
              "code": "await page.fill('#postcode', website[2])",
              "err": {},
              "uuid": "6510aa60-ef05-4358-8974-ad93cfdbf5e5",
              "parentUUID": "c44c8c6c-5cab-4e5c-9636-f094e167b4cb",
              "isHook": false,
              "skipped": false
            },
            {
              "title": "Filling Street address field with valid info",
              "fullTitle": "Add Address to the User's address book Filling Street address field with valid info",
              "timedOut": false,
              "duration": 47,
              "state": "passed",
              "speed": "medium",
              "pass": true,
              "fail": false,
              "pending": false,
              "context": "[\n  \"some context\",\n  {\n    \"title\": \"afterEach context\",\n    \"value\": {\n      \"a\": 1\n    }\n  }\n]",
              "code": "await page.fill('#street', street)",
              "err": {},
              "uuid": "d89518dd-ab54-4271-bc34-388fc9753012",
              "parentUUID": "c44c8c6c-5cab-4e5c-9636-f094e167b4cb",
              "isHook": false,
              "skipped": false
            },
            {
              "title": "Clicking on SAVE ADDRESS button",
              "fullTitle": "Add Address to the User's address book Clicking on SAVE ADDRESS button",
              "timedOut": false,
              "duration": 141,
              "state": "passed",
              "speed": "slow",
              "pass": true,
              "fail": false,
              "pending": false,
              "context": "[\n  \"some context\",\n  {\n    \"title\": \"afterEach context\",\n    \"value\": {\n      \"a\": 1\n    }\n  }\n]",
              "code": "await page.click('button.Button.MyAccount-Button')",
              "err": {},
              "uuid": "04f4cff1-5aa0-408b-ba4a-d09b39945e06",
              "parentUUID": "c44c8c6c-5cab-4e5c-9636-f094e167b4cb",
              "isHook": false,
              "skipped": false
            },
            {
              "title": "List off addresses in Address book appears with newly added address",
              "fullTitle": "Add Address to the User's address book List off addresses in Address book appears with newly added address",
              "timedOut": false,
              "duration": 15,
              "state": "passed",
              "speed": "fast",
              "pass": true,
              "fail": false,
              "pending": false,
              "context": "[\n  \"some context\",\n  {\n    \"title\": \"afterEach context\",\n    \"value\": {\n      \"a\": 1\n    }\n  }\n]",
              "code": "await page.waitForSelector('.KeyValueTable-Wrapper')",
              "err": {},
              "uuid": "6b94fa61-abbc-4260-8aaf-8aad92f5fa72",
              "parentUUID": "c44c8c6c-5cab-4e5c-9636-f094e167b4cb",
              "isHook": false,
              "skipped": false
            }
          ],
          "suites": [],
          "passes": [
            "2a6a8162-8036-452d-88b6-3842d7c9eabc",
            "bcbdd9b3-665e-435c-b19a-bede56dbd02e",
            "7b0992d8-a0a8-4ff1-bce6-1a61306a42dc",
            "a9bfcf54-e6bf-4b72-aa11-a4ddfb24fa2f",
            "afd97faa-4b0a-44dd-afc2-4a634cdc7b30",
            "af78d7a9-81f3-4974-bbfe-01935f598c62",
            "6d59e5a9-0d2a-4ee9-9fcf-ddb59a1e1a4e",
            "8a631f16-4e50-489f-aa5c-6f68b330d789",
            "f9a04b81-4421-4f67-897d-9ef5122f5aa1",
            "e979f4bc-2b97-466f-b3bf-02f565cc306d",
            "08dcf367-1de2-4248-bc83-b471b21aba2d",
            "e4304937-0876-40b5-be3a-8397a6bdf1db",
            "83b18cc6-6d21-47f5-9072-ad5b81333fda",
            "0efd4a67-40d2-4a5b-ae19-1aa1a436efec",
            "ee46f6fd-eab6-4c35-853b-4ec6bc3e25bb",
            "eae16a7e-77be-41dd-b86a-3a90ff0659e5",
            "6510aa60-ef05-4358-8974-ad93cfdbf5e5",
            "d89518dd-ab54-4271-bc34-388fc9753012",
            "04f4cff1-5aa0-408b-ba4a-d09b39945e06",
            "6b94fa61-abbc-4260-8aaf-8aad92f5fa72"
          ],
          "failures": [
            "7c07e4cb-ddfb-4a6b-b9dc-0aba2838bef7"
          ],
          "pending": [],
          "skipped": [],
          "duration": 12654,
          "root": false,
          "rootEmpty": false,
          "_timeout": 500000
        }
      ],
      "passes": [],
      "failures": [],
      "pending": [],
      "skipped": [],
      "duration": 0,
      "root": true,
      "rootEmpty": true,
      "_timeout": 2000
    }
  ],
  "meta": {
    "mocha": {
      "version": "8.3.0"
    },
    "mochawesome": {
      "options": {
        "quiet": false,
        "reportFilename": "mochawesome",
        "saveHtml": true,
        "saveJson": true,
        "consoleReporter": "spec",
        "useInlineDiffs": false,
        "code": true
      },
      "version": "6.2.2"
    },
    "marge": {
      "options": {
        "reportDir": "html/tests",
        "": true
      },
      "version": "5.2.0"
    }
  }
}